<?xml version="1.0" encoding="utf-8"?>
<!-- Generator: Adobe Illustrator 19.0.1, SVG Export Plug-In . SVG Version: 6.00 Build 0)  -->
<svg version="1.1" id="Layer_1" xmlns="http://www.w3.org/2000/svg" xmlns:xlink="http://www.w3.org/1999/xlink" x="0px" y="0px"
	 viewBox="0 0 6 6" style="enable-background:new 0 0 6 6;" xml:space="preserve">
<style type="text/css">
	.st0{fill:#302F2F;}
</style>
<rect x="0.9" y="0.9" transform="matrix(0.7071 0.7071 -0.7071 0.7071 2.9977 -1.2436)" class="st0" width="4.2" height="4.2"/>
</svg>
