<?xml version="1.0" encoding="utf-8"?>
<!-- Generator: Adobe Illustrator 19.0.1, SVG Export Plug-In . SVG Version: 6.00 Build 0)  -->
<svg version="1.1" id="Layer_1" xmlns="http://www.w3.org/2000/svg" xmlns:xlink="http://www.w3.org/1999/xlink" x="0px" y="0px"
	 viewBox="0 0 40 40" style="enable-background:new 0 0 40 40;" xml:space="preserve">
<style type="text/css">
	.st0{fill:#FFFFFF;}
</style>
<path class="st0" d="M36.6,18.1c0-7-7.6-12.7-17-12.7c-9.4,0-17,5.7-17,12.7c0,7,7.6,12.7,17,12.7c1.4,0,2.8-0.1,4.2-0.4
	c1.4,1.7,4.7,4.7,9.1,4.5c-2.3-1.6-3.1-4.3-3.3-6.5C33.8,26.1,36.6,22.3,36.6,18.1z M21.2,24.9c0,1.1-0.9,1.9-1.9,1.9
	s-1.9-0.9-1.9-1.9v-9c0-1.1,0.9-1.9,1.9-1.9s1.9,0.9,1.9,1.9V24.9z M19.3,12.5c-1.1,0-1.9-0.9-1.9-1.9s0.9-1.9,1.9-1.9
	c1.1,0,1.9,0.9,1.9,1.9S20.4,12.5,19.3,12.5z"/>
</svg>
